<svg width="15" height="18" viewBox="0 0 15 18" fill="none" xmlns="http://www.w3.org/2000/svg">
    <path d="M5.28634 0.737428C4.22907 0.737428 3.3304 1.45984 3.03965 2.4498H0.634361C0.264317 2.4498 0 2.74412 0 3.1187C0 3.49328 0.290749 3.78759 0.660793 3.78759H3.06608C3.3304 4.77756 4.25551 5.49997 5.31277 5.49997C6.39647 5.49997 7.29515 4.77756 7.5859 3.78759H14.3392C14.7093 3.78759 15 3.49328 15 3.1187C15 2.74412 14.7093 2.4498 14.3392 2.4498H7.5859C7.26872 1.45984 6.37004 0.737428 5.28634 0.737428ZM5.31277 2.07522C5.86784 2.07522 6.34361 2.53007 6.34361 3.1187C6.34361 3.70733 5.86784 4.16218 5.31277 4.16218C4.75771 4.16218 4.28194 3.70733 4.28194 3.1187C4.28194 2.53007 4.75771 2.07522 5.31277 2.07522Z" fill="#2C2C2C"/>
    <path d="M10.2423 6.61374C9.18502 6.61374 8.28634 7.33615 7.99559 8.32611H0.660793C0.264317 8.32611 0 8.62043 0 8.99501C0 9.36959 0.290749 9.66391 0.660793 9.66391H7.99559C8.25991 10.6539 9.18502 11.3763 10.2423 11.3763C11.326 11.3763 12.2247 10.6539 12.5154 9.66391H14.3392C14.7093 9.66391 15 9.36959 15 8.99501C15 8.62043 14.7093 8.32611 14.3392 8.32611H12.5154C12.2247 7.33615 11.326 6.61374 10.2423 6.61374ZM10.2687 7.95153C10.8238 7.95153 11.2996 8.40638 11.2996 8.99501C11.2996 9.58364 10.8238 10.0385 10.2687 10.0385C9.71366 10.0385 9.23789 9.58364 9.23789 8.99501C9.23789 8.40638 9.68722 7.95153 10.2687 7.95153Z" fill="#2C2C2C"/>
    <path d="M5.45815 12.7627C4.40088 12.7627 3.5022 13.4851 3.21145 14.4751H0.660793C0.264317 14.4751 0 14.7694 0 15.144C0 15.5185 0.290749 15.8129 0.660793 15.8129H3.23789C3.5022 16.8028 4.42731 17.5252 5.48458 17.5252C6.56828 17.5252 7.46696 16.8028 7.75771 15.8129H14.3392C14.7093 15.8129 15 15.5185 15 15.144C15 14.7694 14.7093 14.4751 14.3392 14.4751H7.73128C7.44053 13.4851 6.54185 12.7627 5.45815 12.7627ZM5.48458 14.1005C6.03965 14.1005 6.51542 14.5553 6.51542 15.144C6.51542 15.7326 6.03965 16.1874 5.48458 16.1874C4.92951 16.1874 4.45374 15.7326 4.45374 15.144C4.48018 14.5553 4.92951 14.1005 5.48458 14.1005Z" fill="#2C2C2C"/>
</svg>
