<svg width="16" height="16" viewBox="0 0 16 16" fill="none" xmlns="http://www.w3.org/2000/svg">
    <path d="M15.154 14.2908L10.9832 10.12C11.7911 9.12207 12.2775 7.85402 12.2775 6.47293C12.2775 3.27196 9.67295 0.667419 6.47198 0.667419C3.27101 0.667419 0.666504 3.27193 0.666504 6.4729C0.666504 9.67387 3.27104 12.2784 6.47201 12.2784C7.8531 12.2784 9.12115 11.792 10.1191 10.9841L14.2899 15.1549C14.409 15.274 14.5655 15.3339 14.7219 15.3339C14.8784 15.3339 15.0348 15.274 15.154 15.1549C15.3929 14.9159 15.3929 14.5297 15.154 14.2908ZM6.47201 11.0562C3.94447 11.0562 1.88872 9.00044 1.88872 6.4729C1.88872 3.94536 3.94447 1.88961 6.47201 1.88961C8.99955 1.88961 11.0553 3.94536 11.0553 6.4729C11.0553 9.00044 8.99952 11.0562 6.47201 11.0562Z" fill="#2C2C2C"/>
</svg>
